R-Basics Day 2
…
# Inferential Statistics - Part 2
---
# Dataset to be explored
.panelset[
.panel[.panel-name[Data]

``` r
library(tidyverse)
library(ggpubr)
load("../data/statistics_data.RData")
dataset
```

```
## # A tibble: 391 × 7
##       IQ parental_education income schooling_decision IQ_after_1y group         
##    <dbl> <fct>               <dbl> <fct>                    <dbl> <fct>         
##  1   436 low                   114 highschool                 439 low|highschool
##  2   320 low                   101 highschool                 341 low|highschool
##  3   415 low                   183 highschool                 433 low|highschool
##  4   497 low                   174 highschool                 501 low|highschool
##  5   366 low                   155 highschool                 382 low|highschool
##  6   458 low                   224 highschool                 474 low|highschool
##  7   433 low                   148 highschool                 452 low|highschool
##  8   417 low                   221 highschool                 425 low|highschool
##  9   361 low                   160 highschool                 372 low|highschool
## 10   496 low                   130 highschool                 506 low|highschool
## # ℹ 381 more rows
## # ℹ 1 more variable: plot_color <chr>
```
…
---
# Dataset to be explored
.panelset[
.panel[.panel-name[Data]

``` r
dataset
```

```
## # A tibble: 391 × 7
##       IQ parental_education income schooling_decision IQ_after_1y group         
##    <dbl> <fct>               <dbl> <fct>                    <dbl> <fct>         
##  1   436 low                   114 highschool                 439 low|highschool
##  2   320 low                   101 highschool                 341 low|highschool
##  3   415 low                   183 highschool                 433 low|highschool
##  4   497 low                   174 highschool                 501 low|highschool
##  5   366 low                   155 highschool                 382 low|highschool
##  6   458 low                   224 highschool                 474 low|highschool
##  7   433 low                   148 highschool                 452 low|highschool
##  8   417 low                   221 highschool                 425 low|highschool
##  9   361 low                   160 highschool                 372 low|highschool
## 10   496 low                   130 highschool                 506 low|highschool
## # ℹ 381 more rows
## # ℹ 1 more variable: plot_color <chr>
```
…
]
]

---

# Dataset to be explored
.panelset[
.panel[.panel-name[Data]

``` r
dataset
```

```
## # A tibble: 391 × 7
##       IQ parental_education income schooling_decision IQ_after_1y group         
##    <dbl> <fct>               <dbl> <fct>                    <dbl> <fct>         
##  1   436 low                   114 highschool                 439 low|highschool
##  2   320 low                   101 highschool                 341 low|highschool
##  3   415 low                   183 highschool                 433 low|highschool
##  4   497 low                   174 highschool                 501 low|highschool
##  5   366 low                   155 highschool                 382 low|highschool
##  6   458 low                   224 highschool                 474 low|highschool
##  7   433 low                   148 highschool                 452 low|highschool
##  8   417 low                   221 highschool                 425 low|highschool
##  9   361 low                   160 highschool                 372 low|highschool
## 10   496 low                   130 highschool                 506 low|highschool
## # ℹ 381 more rows
## # ℹ 1 more variable: plot_color <chr>
```
…
**Note that for low-income parents, there is a tendency to send their children to secondary school even at quite high IQ values**. We have seen that low income typically goes with not having had a higher education. This hints at the **role of barriers**: Parents tend to keep their children in their own social sphere.

]
]
---
# Dataset to be explored
.panelset[
.panel[.panel-name[Data]

``` r
dataset
```

```
## # A tibble: 391 × 7
##       IQ parental_education income schooling_decision IQ_after_1y group         
##    <dbl> <fct>               <dbl> <fct>                    <dbl> <fct>         
##  1   436 low                   114 highschool                 439 low|highschool
##  2   320 low                   101 highschool                 341 low|highschool
##  3   415 low                   183 highschool                 433 low|highschool
##  4   497 low                   174 highschool                 501 low|highschool
##  5   366 low                   155 highschool                 382 low|highschool
##  6   458 low                   224 highschool                 474 low|highschool
##  7   433 low                   148 highschool                 452 low|highschool
##  8   417 low                   221 highschool                 425 low|highschool
##  9   361 low                   160 highschool                 372 low|highschool
## 10   496 low                   130 highschool                 506 low|highschool
## # ℹ 381 more rows
## # ℹ 1 more variable: plot_color <chr>
```
…
``` r
data_long
```

```
## # A tibble: 782 × 7
##    parental_education income schooling_decision group     plot_color measurement
##    <fct>               <dbl> <fct>              <fct>     <chr>      <fct>      
##  1 low                   114 highschool         low|high… blue       low|highsc…
##  2 low                   114 highschool         low|high… blue4      low|highsc…
##  3 low                   101 highschool         low|high… blue       low|highsc…
##  4 low                   101 highschool         low|high… blue4      low|highsc…
##  5 low                   183 highschool         low|high… blue       low|highsc…
##  6 low                   183 highschool         low|high… blue4      low|highsc…
##  7 low                   174 highschool         low|high… blue       low|highsc…
##  8 low                   174 highschool         low|high… blue4      low|highsc…
##  9 low                   155 highschool         low|high… blue       low|highsc…
## 10 low                   155 highschool         low|high… blue4      low|highsc…
## # ℹ 772 more rows
## # ℹ 1 more variable: IQ_value <dbl>
```
…
``` r
low_highschool <- subset(dataset, group == "low|highschool")
low_highschool
```

```
## # A tibble: 77 × 7
##       IQ parental_education income schooling_decision IQ_after_1y group         
##    <dbl> <fct>               <dbl> <fct>                    <dbl> <fct>         
##  1   436 low                   114 highschool                 439 low|highschool
##  2   320 low                   101 highschool                 341 low|highschool
##  3   415 low                   183 highschool                 433 low|highschool
##  4   497 low                   174 highschool                 501 low|highschool
##  5   366 low                   155 highschool                 382 low|highschool
##  6   458 low                   224 highschool                 474 low|highschool
##  7   433 low                   148 highschool                 452 low|highschool
##  8   417 low                   221 highschool                 425 low|highschool
##  9   361 low                   160 highschool                 372 low|highschool
## 10   496 low                   130 highschool                 506 low|highschool
## # ℹ 67 more rows
## # ℹ 1 more variable: plot_color <chr>
```
…
